…
  return(reviews)
  
  
}
base_url = "https://www.amazon.com/product-reviews/B00005JNBQ/ref=cm_cr_arp_d_viewopt_rvwer?ie=UTF8&reviewerType=avp_only_reviews&sortBy=recent&pageNumber="
urls = str_c(base_url, 1:5)
bind_rows(
  get_page_reviews(urls[1]),
  get_page_reviews(urls[2]),
  get_page_reviews(urls[3]),
  get_page_reviews(urls[4]),
  get_page_reviews(urls[5]))
```

    ## # A tibble: 50 × 3
    ##    title                            stars              text                     
    ##    <chr>                            <chr>              <chr>                    
    ##  1 no brainer                       5.0 out of 5 stars "\n  watched this with m…
    ##  2 Yeah., it was pretty good.       5.0 out of 5 stars "\n  Yeah, it was pretty…
    ##  3 Love it                          5.0 out of 5 stars "\n  Didn't like this wh…
    ##  4 it was                           5.0 out of 5 stars "\n  mad good yo\n"      
    ##  5 Fun!                             4.0 out of 5 stars "\n  Fun and entertainin…
    ##  6 Vintage                          5.0 out of 5 stars "\n  Easy to order. I th…
    ##  7 too many commercials             1.0 out of 5 stars "\n  5 minutes into the …
    ##  8 this film is so good!            5.0 out of 5 stars "\n  VOTE FOR PEDRO!\n"  
    ##  9 Good movie                       5.0 out of 5 stars "\n  Weird story, goofy …
    ## 10 I Just everyone to know this.... 5.0 out of 5 stars "\n  VOTE FOR PEDRO !!!!…
    ## # … with 40 more rows
…
